{
  "name": "dnd5e_cs",
  "title": "DnD5e Czech Translation",
  "description": "<p>Přidá český překlad pro DnD5e systém.</p>",
  "version": "1.0.0",
  "minimumCoreVersion": "0.7.6",
  "compatibleCoreVersion": "0.7.9",
  "dependencies": [
    {
      "name": "babele",
      "manifest": "https://gitlab.com/riccisi/foundryvtt-babele/raw/master/module/module.json",
      "version": "1.19"
    }
  ],
  "author": "Karel Zavicak",
  "systems": [
    "dnd5e"
  ],
  "minimumSystemVersion": "1.2.0",
  "scripts": [],
  "styles": [
    "./css/5ecs.css"
  ],
  "packs": [],
  "esmodules": [
    "cs5e.js"
  ],
  "languages": [
    {
      "lang": "cs",
      "name": "Čeština",
      "path": "cs.json"
    }
  ],
  "url": "https://bitbucket.org/KarelZavicak/foundryvtt-dnd5e-lang-cs",
  "manifest": "https://bitbucket.org/KarelZavicak/foundryvtt-dnd5e-lang-cs/raw/master/dnd5e_cs/module.json",
  "download": "https://bitbucket.org/KarelZavicak/foundryvtt-dnd5e-lang-cs/-/jobs/artifacts/v1.0.0/raw/dnd5e_cs.zip?job=build"

}
